{
  "layerInfos": [
    {
      "name": "Taxlots",
      "id": "Taxlots_6747",
      "layer": {
        "url": "https://services8.arcgis.com/IMdJDKFYUN1k5T2P/arcgis/rest/services/Taxlots/FeatureServer/0",
        "fields": [
          {
            "name": "OBJECTID",
            "alias": "OBJECTID",
            "show": false,
            "format": null
          },
          {
            "name": "County",
            "alias": "County",
            "show": true,
            "format": {
              "places": 0,
              "digitSeparator": true
            }
          },
          {
            "name": "Town",
            "alias": "Town",
            "show": true,
            "format": {
              "places": 0,
              "digitSeparator": true
            }
          },
          {
            "name": "TownPart",
            "alias": "TownPart",
            "show": true,
            "format": {
              "places": 2,
              "digitSeparator": true
            }
          },
          {
            "name": "TownDir",
            "alias": "TownDir",
            "show": true,
            "format": null
          },
          {
            "name": "Range",
            "alias": "Range",
            "show": true,
            "format": {
              "places": 0,
              "digitSeparator": true
            }
          },
          {
            "name": "RangePart",
            "alias": "RangePart",
            "show": true,
            "format": {
              "places": 2,
              "digitSeparator": true
            }
          },
          {
            "name": "RangeDir",
            "alias": "RangeDir",
            "show": true,
            "format": null
          },
          {
            "name": "SecNumber",
            "alias": "SecNumber",
            "show": true,
            "format": {
              "places": 0,
              "digitSeparator": true
            }
          },
          {
            "name": "Qtr",
            "alias": "Qtr",
            "show": true,
            "format": null
          },
          {
            "name": "QtrQtr",
            "alias": "QtrQtr",
            "show": true,
            "format": null
          },
          {
            "name": "Anomaly",
            "alias": "Anomaly",
            "show": true,
            "format": null
          },
          {
            "name": "MapSufType",
            "alias": "MapSufType",
            "show": true,
            "format": null
          },
          {
            "name": "MapNumber",
            "alias": "MapNumber",
            "show": true,
            "format": null
          },
          {
            "name": "ORMapNum",
            "alias": "ORMapNum",
            "show": true,
            "format": null
          },
          {
            "name": "Taxlot",
            "alias": "Taxlot",
            "show": true,
            "format": null
          },
          {
            "name": "MapTaxlot",
            "alias": "MapTaxlot",
            "show": true,
            "format": null
          },
          {
            "name": "ORTaxlot",
            "alias": "ORTaxlot",
            "show": true,
            "format": null
          },
          {
            "name": "TaxlotAcre",
            "alias": "TaxlotAcre",
            "show": true,
            "format": {
              "places": 2,
              "digitSeparator": true
            }
          },
          {
            "name": "MapAcres",
            "alias": "MapAcres",
            "show": true,
            "format": {
              "places": 2,
              "digitSeparator": true
            }
          },
          {
            "name": "ReliaCode",
            "alias": "ReliaCode",
            "show": true,
            "format": {
              "places": 0,
              "digitSeparator": true
            }
          },
          {
            "name": "AutoDate",
            "alias": "AutoDate",
            "show": true,
            "format": {
              "dateFormat": "shortDateShortTime"
            }
          },
          {
            "name": "AutoMethod",
            "alias": "AutoMethod",
            "show": true,
            "format": null
          },
          {
            "name": "AutoWho",
            "alias": "AutoWho",
            "show": true,
            "format": null
          },
          {
            "name": "TaxlotFeet",
            "alias": "TaxlotFeet",
            "show": true,
            "format": {
              "places": 0,
              "digitSeparator": true
            }
          },
          {
            "name": "MapClass",
            "alias": "MapClass",
            "show": true,
            "format": null
          },
          {
            "name": "MapRelCode",
            "alias": "MapRelCode",
            "show": true,
            "format": null
          },
          {
            "name": "MapSufNum",
            "alias": "MapSufNum",
            "show": true,
            "format": {
              "places": 0,
              "digitSeparator": true
            }
          },
          {
            "name": "CreatedBy",
            "alias": "CreatedBy",
            "show": true,
            "format": null
          },
          {
            "name": "CreatedDate",
            "alias": "CreatedDate",
            "show": true,
            "format": {
              "dateFormat": "shortDateShortTime"
            }
          },
          {
            "name": "LastEditedBy",
            "alias": "LastEditedBy",
            "show": true,
            "format": null
          },
          {
            "name": "LastEditedDate",
            "alias": "LastEditedDate",
            "show": true,
            "format": {
              "dateFormat": "shortDateShortTime"
            }
          },
          {
            "name": "SpecialInt",
            "alias": "SpecialInt",
            "show": true,
            "format": null
          },
          {
            "name": "REFLink",
            "alias": "REFLink",
            "show": true,
            "format": null
          },
          {
            "name": "RemapStatus",
            "alias": "RemapStatus",
            "show": true,
            "format": null
          },
          {
            "name": "Shape__Area",
            "alias": "Shape__Area",
            "show": false,
            "format": {
              "places": 2,
              "digitSeparator": true
            }
          },
          {
            "name": "Shape__Length",
            "alias": "Shape__Length",
            "show": false,
            "format": {
              "places": 2,
              "digitSeparator": true
            }
          }
        ]
      },
      "show": true,
      "showAttachments": false
    },
    {
      "name": "Taxlots - tblSitusAddress",
      "id": "Taxlots_8192",
      "layer": {
        "url": "https://services8.arcgis.com/IMdJDKFYUN1k5T2P/arcgis/rest/services/Taxlots/FeatureServer/3",
        "fields": [
          {
            "name": "OBJECTID",
            "alias": "OID",
            "show": false,
            "format": null
          },
          {
            "name": "GISKKK",
            "alias": "GISKKK",
            "show": true,
            "format": null
          },
          {
            "name": "TNUM",
            "alias": "TNUM",
            "show": true,
            "format": {
              "places": 0,
              "digitSeparator": true
            }
          },
          {
            "name": "TEXT",
            "alias": "TEXT",
            "show": true,
            "format": null
          },
          {
            "name": "TDIR",
            "alias": "TDIR",
            "show": true,
            "format": null
          },
          {
            "name": "TROAD",
            "alias": "TROAD",
            "show": true,
            "format": null
          },
          {
            "name": "TLANE",
            "alias": "TLANE",
            "show": true,
            "format": null
          },
          {
            "name": "TCITY",
            "alias": "TCITY",
            "show": true,
            "format": null
          }
        ]
      },
      "show": true,
      "showAttachments": false
    },
    {
      "name": "Taxlots - tblOwnerMailingAddress",
      "id": "Taxlots_3318",
      "layer": {
        "url": "https://services8.arcgis.com/IMdJDKFYUN1k5T2P/arcgis/rest/services/Taxlots/FeatureServer/2",
        "fields": [
          {
            "name": "OBJECTID",
            "alias": "OID",
            "show": false,
            "format": null
          },
          {
            "name": "GISKKK",
            "alias": "GISKKK",
            "show": true,
            "format": null
          },
          {
            "name": "MNAM",
            "alias": "MNAM",
            "show": true,
            "format": null
          },
          {
            "name": "MCON",
            "alias": "MCON",
            "show": true,
            "format": null
          },
          {
            "name": "MAD1",
            "alias": "MAD1",
            "show": true,
            "format": null
          },
          {
            "name": "MAD2",
            "alias": "MAD2",
            "show": true,
            "format": null
          },
          {
            "name": "MCST",
            "alias": "MCST",
            "show": true,
            "format": null
          },
          {
            "name": "MZIP",
            "alias": "MZIP",
            "show": true,
            "format": null
          }
        ]
      },
      "show": true,
      "showAttachments": false
    },
    {
      "name": "Taxlots - tblAssessor",
      "id": "Taxlots_4596",
      "layer": {
        "url": "https://services8.arcgis.com/IMdJDKFYUN1k5T2P/arcgis/rest/services/Taxlots/FeatureServer/1",
        "fields": [
          {
            "name": "OBJECTID",
            "alias": "OID",
            "show": false,
            "format": null
          },
          {
            "name": "GISKKK",
            "alias": "GISKKK",
            "show": true,
            "format": null
          },
          {
            "name": "MREF",
            "alias": "MREF",
            "show": true,
            "format": {
              "places": 0,
              "digitSeparator": true
            }
          },
          {
            "name": "MROL",
            "alias": "MROL",
            "show": true,
            "format": null
          },
          {
            "name": "MALF",
            "alias": "MALF",
            "show": true,
            "format": null
          },
          {
            "name": "MNUM",
            "alias": "MNUM",
            "show": true,
            "format": {
              "places": 0,
              "digitSeparator": true
            }
          },
          {
            "name": "MCOD",
            "alias": "MCOD",
            "show": true,
            "format": {
              "places": 0,
              "digitSeparator": true
            }
          },
          {
            "name": "MPCL",
            "alias": "MPCL",
            "show": true,
            "format": {
              "places": 0,
              "digitSeparator": true
            }
          },
          {
            "name": "MMCL",
            "alias": "MMCL",
            "show": true,
            "format": {
              "places": 0,
              "digitSeparator": true
            }
          },
          {
            "name": "MAAR",
            "alias": "MAAR",
            "show": true,
            "format": {
              "places": 0,
              "digitSeparator": true
            }
          },
          {
            "name": "MVAR",
            "alias": "MVAR",
            "show": true,
            "format": null
          },
          {
            "name": "MZON",
            "alias": "MZON",
            "show": true,
            "format": null
          },
          {
            "name": "MACR",
            "alias": "MACR",
            "show": true,
            "format": {
              "places": 2,
              "digitSeparator": true
            }
          },
          {
            "name": "MAYR",
            "alias": "MAYR",
            "show": true,
            "format": {
              "places": 0,
              "digitSeparator": true
            }
          },
          {
            "name": "MPAR",
            "alias": "MPAR",
            "show": true,
            "format": {
              "places": 0,
              "digitSeparator": true
            }
          },
          {
            "name": "MREL",
            "alias": "MREL",
            "show": true,
            "format": {
              "places": 0,
              "digitSeparator": true
            }
          },
          {
            "name": "MPCT",
            "alias": "MPCT",
            "show": true,
            "format": {
              "places": 0,
              "digitSeparator": true
            }
          },
          {
            "name": "TAXES",
            "alias": "TAXES",
            "show": true,
            "format": {
              "places": 0,
              "digitSeparator": true
            }
          },
          {
            "name": "ALND",
            "alias": "ALND",
            "show": true,
            "format": {
              "places": 0,
              "digitSeparator": true
            }
          },
          {
            "name": "AIMP",
            "alias": "AIMP",
            "show": true,
            "format": {
              "places": 0,
              "digitSeparator": true
            }
          },
          {
            "name": "MLND",
            "alias": "MLND",
            "show": true,
            "format": {
              "places": 0,
              "digitSeparator": true
            }
          },
          {
            "name": "MIMP",
            "alias": "MIMP",
            "show": true,
            "format": {
              "places": 0,
              "digitSeparator": true
            }
          },
          {
            "name": "TBCL",
            "alias": "TBCL",
            "show": true,
            "format": null
          },
          {
            "name": "TYBL",
            "alias": "TYBL",
            "show": true,
            "format": {
              "places": 0,
              "digitSeparator": true
            }
          },
          {
            "name": "TTSQF",
            "alias": "TTSQF",
            "show": true,
            "format": {
              "places": 0,
              "digitSeparator": true
            }
          },
          {
            "name": "TLOTSF",
            "alias": "TLOTSF",
            "show": true,
            "format": {
              "places": 2,
              "digitSeparator": true
            }
          },
          {
            "name": "SLDATE",
            "alias": "SLDATE",
            "show": true,
            "format": {
              "places": 0,
              "digitSeparator": true
            }
          },
          {
            "name": "SLAMT",
            "alias": "SLAMT",
            "show": true,
            "format": {
              "places": 0,
              "digitSeparator": true
            }
          },
          {
            "name": "SLMULT",
            "alias": "SLMULT",
            "show": true,
            "format": {
              "places": 0,
              "digitSeparator": true
            }
          }
        ]
      },
      "show": true,
      "showAttachments": false
    }
  ],
  "table": {
    "pageSizeOptions": [
      25,
      50,
      100,
      1000
    ]
  },
  "hideExportButton": false,
  "initiallyExpand": false,
  "filterByMapExtent": true
}