{
  "name": "Wallowa County Taxlots",
  "description": "Wallow County Taxlots Mapping Application",
  "createdTime": 1500402638545,
  "lastUpdated": 1500523832963,
  "creator": "apgis_wallowacounty"
}